// Jest Snapshot v1, https://goo.gl/fbAQLP

exports[`<Message /> should match snapshot when default 1`] = `
<div
  className="container container--absolute"
>
  <div
    className="message fill-container"
  >
    <p
      className="message__title"
    >
      Welcom to our site!
    </p>
    <p
      className="message__description"
    >
      Find a video you want to view.
    </p>
  </div>
</div>
`;

exports[`<Message /> should match snapshot when error 1`] = `
<div
  className="container container--absolute"
>
  <div
    className="message fill-container"
  >
    <p
      className="message__title"
    >
      Oops, something went wrong!
    </p>
    <p
      className="message__description"
    >
      Please try again later.
    </p>
  </div>
</div>
`;

exports[`<Message /> should match snapshot when no results 1`] = `
<div
  className="container container--absolute"
>
  <div
    className="message fill-container"
  >
    <p
      className="message__title"
    >
      No results!
    </p>
    <p
      className="message__description"
    >
      Try again using different keywords.
    </p>
  </div>
</div>
`;

exports[`<Message /> should match snapshot when searching 1`] = `
<div
  className="container container--absolute"
>
  <div
    className="message fill-container"
  >
    <p
      className="message__title"
    >
      Searching...
    </p>
  </div>
</div>
`;
