// Jest Snapshot v1, https://goo.gl/fbAQLP

exports[`should match 1`] = `
Object {
  "API_KEY": "AIzaSyC7H7KGBOx1ngNTEEzlU0uTtA0QmM5rHIY",
  "API_SEARCH_URL": "https://www.googleapis.com/youtube/v3/search",
  "SEARCH_MAX_RESULTS": 1,
  "SEARCH_PART": "snippet",
  "SEARCH_TYPE": "video",
}
`;
